# Name,   Type, SubType, Offset,  Size, Flags
nvs,      data, nvs,     0x9000,  0x25000,
otadata,  data, ota,     0x2e000, 0x2000,
app0,     app,  ota_0,   0x30000, 0x6F0000,
app1,     app,  ota_1,   0x720000,0x6F0000,
firmware, data, fat,     0xE10000,0x1E0000,
coredump, data, coredump,0xFF0000,0x10000,